{
  "project_info": {
    "project_number": "806660506750",
    "firebase_url": "https://etiquetarojaapp.firebaseio.com",
    "project_id": "etiquetarojaapp",
    "storage_bucket": "etiquetarojaapp.appspot.com"
  },
  "client": [
    {
      "client_info": {
        "mobilesdk_app_id": "1:806660506750:android:f11cadfd6ea87b0c19842f",
        "android_client_info": {
          "package_name": "mx.etiquetaroja.app"
        }
      },
      "oauth_client": [
        {
          "client_id": "806660506750-esqaojve9ja0flu39iggmbbo7u4i5deu.apps.googleusercontent.com",
          "client_type": 3
        }
      ],
      "api_key": [
        {
          "current_key": "AIzaSyDDgHGjJ-1jta-HVbNqMbpfI-7GDhXXtwY"
        }
      ],
      "services": {
        "appinvite_service": {
          "other_platform_oauth_client": [
            {
              "client_id": "806660506750-esqaojve9ja0flu39iggmbbo7u4i5deu.apps.googleusercontent.com",
              "client_type": 3
            }
          ]
        }
      }
    }
  ],
  "configuration_version": "1"
}