{
    "prepare_queue": {
        "installed": [],
        "uninstalled": []
    },
    "config_munge": {
        "files": {
            "config.xml": {
                "parents": {
                    "/*": [
                        {
                            "xml": "<feature name=\"QRScanner\"><param name=\"browser-package\" value=\"QRScanner\" /></feature>",
                            "count": 1
                        },
                        {
                            "xml": "<feature name=\"GooglePlus\"><param name=\"onload\" value=\"true\" /></feature>",
                            "count": 1
                        },
                        {
                            "xml": "<access origin=\"https://accounts.google.com/*\" />",
                            "count": 1
                        },
                        {
                            "xml": "<feature name=\"FacebookConnectPlugin\"><param name=\"browser-package\" value=\"FacebookConnectPluginBrowser\" /><param name=\"onload\" value=\"true\" /></feature>",
                            "count": 1
                        },
                        {
                            "xml": "<plugin name=\"FacebookConnectPlugin\" value=\"FacebookConnectPlugin\" />",
                            "count": 1
                        },
                        {
                            "xml": "<access origin=\"https://m.facebook.com\" />",
                            "count": 1
                        },
                        {
                            "xml": "<access origin=\"https://connect.facebook.net\" />",
                            "count": 1
                        },
                        {
                            "xml": "<access origin=\"https://graph.facebook.com\" />",
                            "count": 1
                        },
                        {
                            "xml": "<access origin=\"https://api.facebook.com\" />",
                            "count": 1
                        },
                        {
                            "xml": "<access origin=\"https://*.fbcdn.net\" />",
                            "count": 1
                        },
                        {
                            "xml": "<access origin=\"https://*.akamaihd.net\" />",
                            "count": 1
                        }
                    ]
                }
            }
        }
    },
    "installed_plugins": {
        "cordova-plugin-whitelist": {
            "PACKAGE_NAME": "io.cordova.hellocordova"
        },
        "cordova-plugin-geolocation": {
            "PACKAGE_NAME": "io.cordova.hellocordova"
        },
        "cordova-support-google-services": {
            "PACKAGE_NAME": "mx.etiquetaroja.app"
        },
        "cordova-plugin-qrscanner": {
            "PACKAGE_NAME": "mx.etiquetaroja.app"
        },
        "cordova-plugin-enable-multidex": {
            "PACKAGE_NAME": "mx.etiquetaroja.app"
        },
        "cordova-plugin-androidx": {
            "PACKAGE_NAME": "mx.etiquetaroja.app"
        },
        "cordova-plugin-androidx-adapter": {
            "PACKAGE_NAME": "mx.etiquetaroja.app"
        },
        "cordova-plugin-googleplus": {
            "WEB_APPLICATION_CLIENT_ID": "1053720648475-09uv0lpfah51i5hvsopqsaesicucf2vd.apps.googleusercontent.com",
            "PACKAGE_NAME": "mx.etiquetaroja.app"
        },
        "cordova-plugin-splashscreen": {
            "PACKAGE_NAME": "mx.etiquetaroja.app"
        },
        "cordova-plugin-key-hash": {
            "PACKAGE_NAME": "mx.etiquetaroja.app"
        },
        "cordova-plugin-firebase-analytics": {
            "FIREBASE_ANALYTICS_COLLECTION_ENABLED": "true",
            "PACKAGE_NAME": "mx.etiquetaroja.app"
        },
        "cordova-plugin-firebase-messaging": {
            "PACKAGE_NAME": "mx.etiquetaroja.app"
        },
        "cordova-plugin-facebook4": {
            "APP_ID": "829004240915085",
            "APP_NAME": "EtiquetaRojaApp",
            "FACEBOOK_HYBRID_APP_EVENTS": "false",
            "FACEBOOK_ANDROID_SDK_VERSION": "5.13.0",
            "PACKAGE_NAME": "mx.etiquetaroja.app"
        }
    },
    "dependent_plugins": {},
    "modules": [
        {
            "file": "plugins/cordova-plugin-qrscanner/www/www.min.js",
            "id": "cordova-plugin-qrscanner.QRScanner",
            "pluginId": "cordova-plugin-qrscanner",
            "clobbers": [
                "QRScanner"
            ]
        },
        {
            "file": "plugins/cordova-plugin-qrscanner/src/browser/plugin.min.js",
            "id": "cordova-plugin-qrscanner.QRScannerProxy",
            "pluginId": "cordova-plugin-qrscanner",
            "runs": true
        },
        {
            "file": "plugins/cordova-plugin-googleplus/www/GooglePlus.js",
            "id": "cordova-plugin-googleplus.GooglePlus",
            "pluginId": "cordova-plugin-googleplus",
            "clobbers": [
                "window.plugins.googleplus"
            ]
        },
        {
            "file": "plugins/cordova-plugin-googleplus/src/browser/GooglePlusProxy.js",
            "id": "cordova-plugin-googleplus.GooglePlusProxy",
            "pluginId": "cordova-plugin-googleplus",
            "clobbers": [
                "GooglePlus"
            ]
        },
        {
            "file": "plugins/cordova-plugin-splashscreen/www/splashscreen.js",
            "id": "cordova-plugin-splashscreen.SplashScreen",
            "pluginId": "cordova-plugin-splashscreen",
            "clobbers": [
                "navigator.splashscreen"
            ]
        },
        {
            "file": "plugins/cordova-plugin-splashscreen/src/browser/SplashScreenProxy.js",
            "id": "cordova-plugin-splashscreen.SplashScreenProxy",
            "pluginId": "cordova-plugin-splashscreen",
            "runs": true
        },
        {
            "file": "plugins/cordova-plugin-key-hash/www/index.js",
            "id": "cordova-plugin-key-hash.getKeyHashes",
            "pluginId": "cordova-plugin-key-hash",
            "clobbers": [
                "window.plugins.getKeyHashes"
            ]
        },
        {
            "file": "plugins/cordova-plugin-key-hash/tests/index.spec.js",
            "id": "cordova-plugin-key-hash.tests",
            "pluginId": "cordova-plugin-key-hash"
        },
        {
            "file": "plugins/cordova-plugin-firebase-analytics/www/FirebaseAnalytics.js",
            "id": "cordova-plugin-firebase-analytics.FirebaseAnalytics",
            "pluginId": "cordova-plugin-firebase-analytics",
            "merges": [
                "cordova.plugins.firebase.analytics"
            ]
        },
        {
            "file": "plugins/cordova-plugin-firebase-messaging/www/FirebaseMessaging.js",
            "id": "cordova-plugin-firebase-messaging.FirebaseMessaging",
            "pluginId": "cordova-plugin-firebase-messaging",
            "merges": [
                "cordova.plugins.firebase.messaging"
            ]
        },
        {
            "file": "plugins/cordova-plugin-facebook4/www/facebook-browser.js",
            "id": "cordova-plugin-facebook4.FacebookConnectPluginBrowser",
            "pluginId": "cordova-plugin-facebook4",
            "clobbers": [
                "facebookConnectPlugin"
            ]
        }
    ],
    "plugin_metadata": {
        "cordova-plugin-whitelist": "1.3.4",
        "cordova-plugin-geolocation": "4.0.2",
        "cordova-support-google-services": "1.3.2",
        "cordova-plugin-qrscanner": "3.0.1",
        "cordova-plugin-enable-multidex": "0.2.0",
        "cordova-plugin-androidx": "1.0.2",
        "cordova-plugin-androidx-adapter": "1.1.0",
        "cordova-plugin-googleplus": "8.2.1",
        "cordova-plugin-splashscreen": "5.0.3",
        "cordova-plugin-key-hash": "0.1.0",
        "cordova-plugin-firebase-analytics": "4.3.0",
        "cordova-plugin-firebase-messaging": "4.4.0",
        "cordova-plugin-facebook4": "6.4.0"
    }
}